[
  {
    "Name": "Project Qiscerti",
    "Location": "2 Mei 2023 - 19 Juli 2023 (3 Bulan)",
    "Details": "Required : (3) .Net",
    "Image": "coding_1.svg"
  },
  {
    "Name": "Project Woku",
    "Location": "22 Maret 2023 - 9 Jan 2024 (11 Bulan)",
    "Details": "Required : (3) .Net",
    "Image": "coding_1.svg"
  },
  {
    "Name": "Nemesis Project",
    "Location": "12 April 2023 - 9 Mei 2023 (2 Bulan)",
    "Details": "Required : (3) .Net",
    "Image": "coding_1.svg"
  },
  {
    "Name": "Nebula Project",
    "Location": "14 Jan 2023 - 19 Mei 2023 (5 Bulan)",
    "Details": "Required : (3) .Net",
    "Image": "coding_1.svg"
  }
]
