<svg width="22" height="22" viewBox="0 0 22 22" fill="none" xmlns="http://www.w3.org/2000/svg">
<g id="Setting_fill">
<path id="Subtract" fill-rule="evenodd" clip-rule="evenodd" d="M12.8557 2.45915C12.9092 2.59165 12.9255 2.75487 12.9582 3.08131C13.0199 3.69855 13.0508 4.00716 13.1549 4.19082C13.381 4.58958 13.8493 4.78355 14.2911 4.66146C14.4946 4.60523 14.7347 4.40883 15.2148 4.01603L15.2148 4.01602C15.4687 3.80829 15.5956 3.70442 15.7271 3.64853C16.0091 3.52869 16.3304 3.54472 16.5991 3.69202C16.7243 3.76072 16.8403 3.8767 17.0723 4.10868L17.8913 4.92769L17.8913 4.92771C18.1233 5.15968 18.2393 5.27566 18.308 5.40095C18.4553 5.66959 18.4713 5.99092 18.3515 6.27289C18.2956 6.40439 18.1917 6.53134 17.984 6.78525C17.5912 7.26536 17.3947 7.50541 17.3385 7.70892C17.2164 8.15076 17.4104 8.61903 17.8092 8.84513C17.9928 8.94927 18.3014 8.98013 18.9187 9.04186C19.2452 9.07451 19.4084 9.09083 19.5409 9.1443C19.825 9.25894 20.0409 9.49748 20.1267 9.79159C20.1667 9.92876 20.1667 10.0928 20.1667 10.4209V11.5792C20.1667 11.9072 20.1667 12.0712 20.1267 12.2083C20.0409 12.5025 19.825 12.7411 19.5408 12.8557C19.4083 12.9092 19.2452 12.9255 18.9188 12.9581C18.3018 13.0198 17.9933 13.0507 17.8097 13.1547C17.4107 13.3808 17.2167 13.8493 17.3389 14.2912C17.3952 14.4946 17.5915 14.7346 17.9841 15.2144L17.9841 15.2145C18.1918 15.4683 18.2956 15.5951 18.3515 15.7266C18.4714 16.0086 18.4553 16.3301 18.308 16.5988C18.2393 16.724 18.1233 16.8399 17.8915 17.0718L17.0723 17.8909L17.0723 17.8909C16.8404 18.1229 16.7244 18.2389 16.5991 18.3076C16.3305 18.4549 16.0091 18.4709 15.7271 18.351C15.5957 18.2952 15.4687 18.1913 15.2148 17.9836L15.2148 17.9835C14.7347 17.5907 14.4947 17.3944 14.2912 17.3381C13.8493 17.216 13.381 17.41 13.1549 17.8088C13.0508 17.9924 13.0199 18.3011 12.9582 18.9185C12.9255 19.2451 12.9092 19.4084 12.8557 19.5409C12.7411 19.825 12.5026 20.0408 12.2085 20.1266C12.0713 20.1667 11.9072 20.1667 11.579 20.1667H10.4209C10.0928 20.1667 9.92881 20.1667 9.79164 20.1266C9.49753 20.0408 9.25898 19.825 9.14434 19.5408C9.09088 19.4083 9.07455 19.2451 9.04191 18.9187C8.98018 18.3014 8.94932 17.9928 8.84517 17.8091C8.61907 17.4104 8.15081 17.2164 7.70898 17.3385C7.50546 17.3947 7.2654 17.5911 6.78528 17.9839L6.78526 17.984C6.53134 18.1917 6.40438 18.2956 6.27288 18.3515C5.99092 18.4713 5.66959 18.4553 5.40096 18.308C5.27567 18.2393 5.15967 18.1233 4.92768 17.8913L4.1087 17.0723C3.87671 16.8403 3.76072 16.7243 3.69202 16.5991C3.54472 16.3304 3.52869 16.0091 3.64853 15.7271C3.70442 15.5956 3.8083 15.4687 4.01605 15.2147C4.40887 14.7346 4.60527 14.4946 4.6615 14.2911C4.78359 13.8492 4.58962 13.381 4.19086 13.1548C4.00721 13.0507 3.69859 13.0198 3.08135 12.9581C2.75492 12.9255 2.5917 12.9092 2.4592 12.8557C2.17508 12.7411 1.95919 12.5025 1.87339 12.2084C1.83337 12.0712 1.83337 11.9072 1.83337 11.5791L1.83337 10.421C1.83337 10.0928 1.83337 9.92872 1.87341 9.79152C1.95922 9.49747 2.17506 9.25897 2.45911 9.14432C2.59165 9.09083 2.75492 9.07451 3.08146 9.04185H3.08147C3.6989 8.98011 4.00762 8.94924 4.19132 8.84504C4.58997 8.61893 4.78388 8.15078 4.66188 7.70901C4.60566 7.50543 4.40918 7.26529 4.01621 6.78499C3.80835 6.53094 3.70442 6.40392 3.64852 6.27235C3.52876 5.99046 3.54478 5.66922 3.692 5.40065C3.76071 5.27529 3.87676 5.15925 4.10885 4.92716L4.92772 4.10828C5.15972 3.87629 5.27571 3.76029 5.401 3.6916C5.66964 3.5443 5.99096 3.52828 6.27292 3.64811C6.40443 3.704 6.53141 3.8079 6.78539 4.01569C7.26542 4.40845 7.50544 4.60483 7.70886 4.66107C8.15079 4.78324 8.61919 4.58923 8.84529 4.19034C8.94937 4.00673 8.98022 3.69822 9.04192 3.08119C9.07455 2.75486 9.09087 2.5917 9.1443 2.45924C9.25894 2.17505 9.49755 1.9591 9.79174 1.87331C9.92886 1.83333 10.0928 1.83333 10.4208 1.83333H11.5792C11.9072 1.83333 12.0713 1.83333 12.2084 1.87334C12.5025 1.95914 12.7411 2.17503 12.8557 2.45915ZM11 14.6667C13.0251 14.6667 14.6667 13.025 14.6667 11C14.6667 8.97495 13.0251 7.33333 11 7.33333C8.975 7.33333 7.33337 8.97495 7.33337 11C7.33337 13.025 8.975 14.6667 11 14.6667Z" fill="#152D72"/>
</g>
</svg>
